id	20090205212314
type	
title	Live Messenger 2009 手動移除主視窗廣告 + 聊天視窗文字廣告 - Windows Live
chars	UTF-8
icon	favicon.ico
source	http://kestevic.spaces.live.com/blog/cns!1039F8BA225B4A70!2300.entry?wa=wsignin1.0&sa=419526486
comment	
folder	msn
