id	20090815203602
type	
title	Fred's blog: 在霧裡欣賞 BIOS 裡的 ACPI Description Table
chars	UTF-8
icon	favicon.ico
source	http://fred-zone.blogspot.com/2008/10/bios-acpi-description-table.html
comment	
folder	system
